<?xml version="1.0" encoding="UTF-8"?>
<svg xmlns="http://www.w3.org/2000/svg" xmlns:xlink="http://www.w3.org/1999/xlink" width="746.21875pt" height="625.921875pt" viewBox="0 0 746.21875 625.921875" version="1.1">
<defs>
<g>
<symbol overflow="visible" id="glyph0-0">
<path style="stroke:none;" d="M 75.777344 -206.847656 L 43.265625 -174.59375 L 46.59375 -171.777344 C 51.96875 -172.289062 57.601562 -172.800781 63.230469 -172.800781 C 108.542969 -172.800781 144.894531 -133.375 144.894531 -86.273438 C 144.894531 -49.152344 124.160156 -32.769531 101.121094 -32.769531 C 72.703125 -32.769531 40.960938 -57.601562 40.960938 -98.304688 C 40.960938 -115.199219 43.777344 -132.609375 52.734375 -146.945312 L 44.542969 -155.136719 L 30.976562 -142.078125 C 17.152344 -128.769531 10.238281 -110.847656 10.238281 -80.894531 C 10.238281 -42.238281 38.65625 1.792969 82.175781 1.792969 C 135.167969 1.792969 163.839844 -60.929688 163.839844 -109.566406 C 163.839844 -175.359375 125.953125 -206.847656 75.777344 -206.847656 Z M 76.03125 -104.960938 C 76.03125 -101.375 77.824219 -97.535156 81.40625 -93.953125 C 84.734375 -90.625 88.320312 -88.832031 92.160156 -88.832031 C 95.742188 -88.832031 99.585938 -90.625 103.167969 -94.207031 C 106.496094 -97.535156 108.289062 -101.121094 108.289062 -104.960938 C 108.289062 -108.542969 106.496094 -112.382812 102.910156 -115.96875 C 99.585938 -119.296875 96 -121.089844 92.160156 -121.089844 C 88.574219 -121.089844 84.734375 -119.296875 81.152344 -115.710938 C 77.824219 -112.382812 76.03125 -108.800781 76.03125 -104.960938 Z M 76.03125 -104.960938 "/>
</symbol>
<symbol overflow="visible" id="glyph0-1">
<path style="stroke:none;" d="M 10.238281 -164.351562 L 5.121094 -157.183594 L 5.121094 -129.28125 C 27.648438 -150.273438 35.839844 -124.414062 35.839844 -94.976562 L 35.839844 -40.960938 L 21.761719 -21.761719 L 17.921875 0 L 76.800781 0 L 72.960938 -21.761719 L 58.878906 -40.960938 L 58.878906 -185.855469 C 58.878906 -200.191406 55.039062 -207.871094 48.894531 -207.871094 C 42.753906 -207.871094 30.464844 -192.769531 10.238281 -164.351562 Z M 10.238281 -164.351562 "/>
</symbol>
<symbol overflow="visible" id="glyph0-2">
<path style="stroke:none;" d="M 14.078125 -157.695312 L 15.871094 -155.390625 C 28.414062 -165.375 44.289062 -170.238281 58.367188 -170.238281 C 78.847656 -170.238281 95.742188 -160.257812 95.742188 -140.289062 C 95.742188 -98.558594 32.257812 -43.007812 3.839844 -6.910156 L 15.359375 4.097656 C 33.023438 -0.511719 54.785156 -4.351562 74.496094 -4.351562 C 87.039062 -4.351562 98.558594 -2.816406 108.03125 1.023438 L 119.039062 -44.542969 C 108.289062 -46.59375 95.742188 -47.359375 84.480469 -47.359375 C 77.824219 -47.359375 68.097656 -47.105469 58.367188 -46.078125 C 87.808594 -79.871094 119.039062 -118.785156 119.039062 -144.640625 C 119.039062 -189.441406 87.808594 -206.847656 48.128906 -206.847656 L 47.105469 -206.847656 Z M 14.078125 -157.695312 "/>
</symbol>
<symbol overflow="visible" id="glyph0-3">
<path style="stroke:none;" d="M 19.96875 -108.03125 L 24.0625 -101.886719 C 56.574219 -98.046875 85.503906 -86.015625 85.503906 -59.648438 C 85.503906 -34.046875 32.511719 8.703125 13.054688 16.382812 L 13.054688 37.886719 C 68.609375 3.839844 105.726562 -38.398438 105.726562 -73.726562 C 105.726562 -97.792969 90.878906 -116.480469 71.425781 -125.953125 C 91.648438 -144.894531 110.078125 -169.214844 110.078125 -204.800781 C 85.761719 -197.886719 50.945312 -197.886719 14.078125 -204.800781 L 5.121094 -165.886719 C 30.207031 -160.769531 54.273438 -161.023438 77.566406 -162.304688 C 67.585938 -139.777344 41.472656 -121.855469 19.96875 -108.03125 Z M 19.96875 -108.03125 "/>
</symbol>
<symbol overflow="visible" id="glyph0-4">
<path style="stroke:none;" d="M 38.144531 -109.3125 L 105.472656 -190.464844 L 105.472656 -206.847656 L 98.558594 -206.847656 L 43.265625 -141.566406 C 25.34375 -120.574219 9.726562 -92.671875 5.121094 -72.191406 C 5.121094 -66.046875 7.679688 -59.648438 11.265625 -56.320312 L 90.878906 -56.320312 L 89.855469 9.472656 L 112.640625 -9.984375 L 112.894531 -56.320312 L 132.609375 -56.320312 L 144.382812 -92.414062 L 113.152344 -92.414062 L 113.664062 -155.648438 L 92.160156 -138.238281 L 91.390625 -92.414062 L 41.984375 -92.414062 C 39.679688 -95.488281 38.144531 -102.398438 38.144531 -109.3125 Z M 38.144531 -109.3125 "/>
</symbol>
<symbol overflow="visible" id="glyph0-5">
<path style="stroke:none;" d="M 33.535156 -132.097656 L 40.960938 -156.414062 C 46.847656 -155.902344 53.246094 -155.648438 59.390625 -155.648438 C 79.359375 -155.648438 99.839844 -157.695312 114.433594 -160.257812 L 125.441406 -205.3125 C 112.640625 -203.007812 89.601562 -199.9375 68.609375 -199.9375 C 54.785156 -199.9375 41.726562 -201.472656 34.046875 -205.054688 L 33.792969 -205.3125 L 33.535156 -205.3125 L 33.023438 -202.238281 L 7.679688 -102.144531 C 43.519531 -99.070312 77.566406 -88.320312 77.566406 -59.648438 C 77.566406 -34.046875 24.574219 8.703125 5.121094 16.382812 L 5.121094 37.886719 C 60.671875 3.839844 97.792969 -38.398438 97.792969 -73.726562 C 97.792969 -108.542969 65.792969 -131.070312 33.535156 -132.097656 Z M 33.535156 -132.097656 "/>
</symbol>
<symbol overflow="visible" id="glyph0-6">
<path style="stroke:none;" d="M 115.199219 -166.144531 L 119.296875 -170.238281 L 105.726562 -202.753906 C 98.304688 -206.59375 90.625 -208.640625 83.457031 -208.640625 C 20.992188 -208.640625 10.238281 -124.929688 10.238281 -88.832031 C 10.238281 -34.304688 35.328125 2.046875 72.960938 2.046875 C 115.199219 2.046875 143.359375 -22.785156 143.359375 -71.679688 C 143.359375 -116.222656 112.128906 -133.632812 72.449219 -133.632812 L 44.03125 -92.671875 C 53.503906 -96.257812 64.511719 -98.046875 75.265625 -98.046875 C 101.886719 -98.046875 127.488281 -86.273438 127.488281 -58.113281 C 127.488281 -48.894531 111.359375 -37.632812 85.761719 -37.632812 C 48.128906 -37.632812 26.878906 -61.441406 26.878906 -105.984375 C 26.878906 -140.542969 43.265625 -175.359375 75.265625 -175.359375 C 87.039062 -175.359375 100.863281 -173.566406 115.199219 -166.144531 Z M 115.199219 -166.144531 "/>
</symbol>
<symbol overflow="visible" id="glyph0-7">
<path style="stroke:none;" d="M 32.511719 0 C 40.960938 0 49.40625 2.558594 58.113281 6.144531 C 58.113281 -57.601562 95.230469 -142.847656 118.785156 -195.585938 L 107.519531 -205.3125 C 96.511719 -203.519531 70.910156 -200.449219 48.640625 -200.449219 C 35.070312 -200.449219 22.785156 -201.472656 15.871094 -204.800781 L 5.121094 -158.207031 C 15.617188 -156.414062 27.648438 -155.648438 39.679688 -155.648438 C 55.808594 -155.648438 72.191406 -156.929688 86.015625 -158.71875 C 65.023438 -110.078125 41.472656 -46.335938 32.511719 0 Z M 32.511719 0 "/>
</symbol>
<symbol overflow="visible" id="glyph0-8">
<path style="stroke:none;" d="M 10.238281 -52.992188 C 10.238281 -23.550781 33.535156 2.046875 72.960938 2.046875 C 115.199219 2.046875 143.359375 -25.601562 143.359375 -66.816406 C 143.359375 -88.574219 126.71875 -99.585938 107.007812 -108.03125 C 121.089844 -118.273438 129.792969 -140.800781 129.792969 -152.320312 C 129.792969 -181.246094 112.128906 -206.847656 80.640625 -206.847656 C 42.238281 -206.847656 25.601562 -186.113281 25.601562 -147.96875 C 25.601562 -133.375 34.046875 -122.878906 45.824219 -114.6875 C 24.832031 -104.449219 10.238281 -80.640625 10.238281 -52.992188 Z M 27.136719 -61.953125 C 27.136719 -81.40625 42.753906 -99.839844 61.953125 -105.726562 C 91.390625 -91.390625 127.742188 -82.945312 127.742188 -60.671875 C 127.742188 -44.800781 109.824219 -34.304688 83.199219 -34.304688 C 40.960938 -34.304688 27.136719 -47.105469 27.136719 -61.953125 Z M 44.03125 -154.878906 C 44.03125 -164.609375 55.550781 -171.007812 72.960938 -171.007812 C 101.121094 -171.007812 112.382812 -158.71875 112.382812 -144.894531 C 112.382812 -136.449219 102.910156 -120.320312 87.808594 -115.710938 C 65.023438 -124.414062 44.03125 -133.632812 44.03125 -154.878906 Z M 44.03125 -154.878906 "/>
</symbol>
<symbol overflow="visible" id="glyph0-9">
<path style="stroke:none;" d="M 38.398438 -46.847656 L 14.847656 -16.894531 C 34.304688 -3.839844 52.222656 2.046875 68.097656 2.046875 C 113.152344 2.046875 143.359375 -45.824219 143.359375 -117.761719 C 143.359375 -172.289062 118.273438 -208.640625 80.640625 -208.640625 C 38.398438 -208.640625 10.238281 -176.128906 10.238281 -132.097656 C 10.238281 -91.902344 37.375 -76.289062 77.054688 -76.289062 L 104.449219 -111.105469 L 103.679688 -111.871094 C 95.230469 -109.824219 84.222656 -108.289062 76.800781 -108.289062 C 43.265625 -108.289062 25.855469 -125.695312 25.855469 -141.566406 C 25.855469 -156.414062 41.214844 -171.519531 72.960938 -171.519531 C 108.03125 -171.519531 126.71875 -145.152344 126.71875 -100.609375 C 126.71875 -55.039062 103.425781 -30.976562 78.847656 -30.976562 C 63.742188 -30.976562 50.433594 -36.351562 38.398438 -46.847656 Z M 38.398438 -46.847656 "/>
</symbol>
</g>
</defs>
<g id="surface1">
<rect x="0" y="0" width="746.21875" height="625.921875" style="fill:rgb(66.666667%,73.333333%,33.333333%);fill-opacity:1;stroke:none;"/>
<g style="fill:rgb(33.333333%,13.333333%,6.666667%);fill-opacity:1;">
  <use xlink:href="#glyph0-0" x="16" y="236.15625"/>
  <use xlink:href="#glyph0-1" x="190.078125" y="236.15625"/>
  <use xlink:href="#glyph0-2" x="277.125" y="236.15625"/>
  <use xlink:href="#glyph0-3" x="405.125" y="236.15625"/>
  <use xlink:href="#glyph0-4" x="522.890625" y="236.15625"/>
</g>
<g style="fill:rgb(33.333333%,13.333333%,6.666667%);fill-opacity:1;">
  <use xlink:href="#glyph0-5" x="16" y="543.359375"/>
  <use xlink:href="#glyph0-6" x="146.5625" y="543.359375"/>
  <use xlink:href="#glyph0-7" x="300.15625" y="543.359375"/>
  <use xlink:href="#glyph0-8" x="423.03125" y="543.359375"/>
  <use xlink:href="#glyph0-9" x="576.625" y="543.359375"/>
</g>
</g>
</svg>
